{
  "version": 1,
  "size": {
    "x": 32,
    "y": 32
  },
  "license": "CC-BY-SA-3.0",
"copyright": "Taken from tgstation at https://github.com/tgstation/tgstation/commit/faf6db214927874c19b8fa8585d26b5d40de1acc | service - https://github.com/ss220-space/Paradise/tree/7d14d0d125101ba831ea656a3c20e3517cb646e2 | gibdown by discord user blazeba(437213945200377856)",
  "states": [
    {
      "name": "clown",
      "directions": 4
    },
    {
      "name": "clown_e",
      "directions": 4
    },
    {
      "name": "clown_e_r",
      "directions": 4
    },
    {
      "name": "clown_l",
      "directions": 4
    },
    {
      "name": "engineer",
      "directions": 4
    },
    {
      "name": "engineer_e",
      "directions": 4
    },
    {
      "name": "engineer_e_r",
      "directions": 4
    },
    {
      "name": "engineer_l",
      "directions": 4
    },
	{
	  "name": "gibdown-engineer"
	},
    {
      "name": "janitor",
      "directions": 4,
      "delays": [
        [
          0.1,
          0.1,
          0.1,
          0.1
        ],
        [
          0.1,
          0.1,
          0.1,
          0.1
        ],
        [
          0.1,
          0.1,
          0.1,
          0.1
        ],
        [
          0.1,
          0.1,
          0.1,
          0.1
        ]
      ]
    },
    {
      "name": "janitor_e",
      "directions": 4
    },
    {
      "name": "janitor_e_r",
      "directions": 4
    },
    {
      "name": "janitor_l",
      "directions": 4
    },
	{
	  "name": "gibdown-janitor"
	},
    {
      "name": "medical",
      "directions": 4,
      "delays": [
        [
          0.1,
          0.2,
          0.1
        ],
        [
          0.1,
          0.2,
          0.1
        ],
        [
          0.1,
          0.2,
          0.1
        ],
        [
          0.1,
          0.2,
          0.1
        ]
      ]
    },
    {
      "name": "medical_e",
      "directions": 4
    },
    {
      "name": "medical_e_r",
      "directions": 4
    },
    {
      "name": "medical_l",
      "directions": 4
    },
	{
	  "name": "gibdown-medical"
	},
    {
      "name": "miner",
      "directions": 4,
      "delays": [
        [
          0.1,
          0.1
        ],
        [
          0.1,
          0.1
        ],
        [
          0.1,
          0.1
        ],
        [
          0.1,
          0.1
        ]
      ]
    },
    {
      "name": "miner_e",
      "directions": 4
    },
    {
      "name": "miner_e_r",
      "directions": 4
    },
    {
      "name": "miner_l",
      "directions": 4
    },
	{
	  "name": "gibdown-miner"
	},
    {
      "name": "robot",
      "directions": 4
    },
    {
      "name": "robot_e",
      "directions": 4
    },
    {
      "name": "robot_e_r",
      "directions": 4
    },
    {
      "name": "robot_l",
      "directions": 4
    },
	{
	  "name": "gibdown-robot"
	},
    {
      "name": "peace",
      "directions": 4
    },
    {
      "name": "peace_e",
      "directions": 4
    },
    {
      "name": "peace_e_r",
      "directions": 4
    },
    {
      "name": "peace_l",
      "directions": 4
    },
    {
      "name": "service",
      "directions": 4
    },
    {
      "name": "service_e",
      "directions": 4
    },
    {
      "name": "service_e_r",
      "directions": 4
    },
    {
      "name": "service_l",
      "directions": 4
    },
	{
	  "name": "gibdown-service"
	},
    {
      "name": "synd_engineer",
      "directions": 4
    },
    {
      "name": "synd_engineer_e",
      "directions": 4
    },
    {
      "name": "synd_engineer_e_r",
      "directions": 4
    },
    {
      "name": "synd_engineer_l",
      "directions": 4
    },
	{
	  "name": "gibdown-synd_engineer"
	},
    {
      "name": "synd_sec",
      "directions": 4
    },
    {
      "name": "synd_sec_e",
      "directions": 4
    },
    {
      "name": "synd_sec_e_r",
      "directions": 4
    },
    {
      "name": "synd_sec_l",
      "directions": 4
    },
	{
	  "name": "gibdown-synd_sec"
	},
    {
      "name": "synd_medical",
      "directions": 4
    },
    {
      "name": "synd_medical_e",
      "directions": 4,
      "delays": [
        [
          0.1,
          0.2,
          0.1
        ],
        [
          0.1,
          0.2,
          0.1
        ],
        [
          0.1,
          0.2,
          0.1
        ],
        [
          0.1,
          0.2,
          0.1
        ]
      ]
    },
    {
      "name": "synd_medical_e_r",
      "directions": 4,
      "delays": [
        [
          0.1,
          0.2,
          0.1
        ],
        [
          0.1,
          0.2,
          0.1
        ],
        [
          0.1,
          0.2,
          0.1
        ],
        [
          0.1,
          0.2,
          0.1
        ]
      ]
    },
    {
      "name": "synd_medical_l",
      "directions": 4,
      "delays": [
        [
          0.1,
          0.2,
          0.1
        ],
        [
          0.1,
          0.2,
          0.1
        ],
        [
          0.1,
          0.2,
          0.1
        ],
        [
          0.1,
          0.2,
          0.1
        ]
      ]
    },
	{
	  "name": "gibdown-synd_medical"
	}
  ]
}
